com\deven\in\routes\Customer.class
com\deven\in\processors\PalindromFinder.class
com\deven\in\processors\PalindromThread.class
com\deven\in\routes\Address.class
com\deven\in\routes\Customer$CustomerBuilder.class
