C:\Users\dswami\IdeaProjects\miniproject\esb\src\test\java\JavaAppTest.java
C:\Users\dswami\IdeaProjects\miniproject\esb\src\test\java\ThreadsTestNPractice.java
C:\Users\dswami\IdeaProjects\miniproject\esb\src\test\java\TestComsumerProducer.java
C:\Users\dswami\IdeaProjects\miniproject\esb\src\test\java\Bicycle.java
C:\Users\dswami\IdeaProjects\miniproject\esb\src\test\java\JavaCollectionTest.java
